{
    "amasty_product_export_profile": {
        "column": {
            "id": true,
            "name": true,
            "created_at": true,
            "updated_at": true,
            "exported_at": true,
            "serialized_config": true,
            "file_format": true,
            "execution_type": true,
            "product_actions": true
        },
        "constraint": {
            "PRIMARY": true
        }
    },
    "amasty_product_export_profile_event": {
        "column": {
            "id": true,
            "profile_id": true,
            "event_name": true
        },
        "index": {
            "AMASTY_PRODUCT_EXPORT_PROFILE_EVENT_PROFILE_ID": true
        },
        "constraint": {
            "PRIMARY": true,
            "FK_DEBA4361B6E4B807EABD01DBFD092B59": true,
            "AMASTY_PRODUCT_EXPORT_PROFILE_EVENT_PROFILE_ID_EVENT_NAME": true
        }
    },
    "amasty_product_export_connection": {
        "column": {
            "id": true,
            "name": true,
            "table_to_join": true,
            "parent_entity": true,
            "entity_code": true,
            "base_table_key": true,
            "referenced_table_key": true
        },
        "constraint": {
            "PRIMARY": true
        }
    }
}